src/CoreCpu/SingleCpu/sim/cpu_sim.vcd
$version Generated by VerilatedVcd $end
$timescale 1ps $end
 $scope module TOP $end
  $scope module CPU $end
   $var wire 1 O clk $end
   $var wire 1 P memclk $end
   $var wire 1 Q reset $end
   $var wire 32 R UartData [31:0] $end
   $var wire 32 S UartAddress [31:0] $end
   $var wire 1 T UartOver $end
   $var wire 8 U Switch1 [7:0] $end
   $var wire 8 V Switch2 [7:0] $end
   $var wire 1 W Button1 $end
   $var wire 1 X Button2 $end
   $var wire 1 Y Button3 $end
   $var wire 1 Z Button4 $end
   $var wire 1 [ Button5 $end
   $var wire 8 H Led1 [7:0] $end
   $var wire 8 I Led2 [7:0] $end
   $var wire 32 J Seg1Out [31:0] $end
   $var wire 12 _ VgaAddress [11:0] $end
   $var wire 8 d CharOut [7:0] $end
   $var wire 8 e ColorOut [7:0] $end
   $var wire 32 f Pc_test [31:0] $end
   $var wire 32 $ Inst_test [31:0] $end
   $var wire 1 g RealReset $end
   $var wire 32 h NextPc [31:0] $end
   $var wire 32 f ThisPc [31:0] $end
   $var wire 32 i MemInstr [31:0] $end
   $var wire 32 3 MemData [31:0] $end
   $var wire 32 4 UartMemAddress [31:0] $end
   $var wire 32 5 UartMemData [31:0] $end
   $var wire 32 $ FetchInstr [31:0] $end
   $var wire 32 % ImmData [31:0] $end
   $var wire 5 & rs1 [4:0] $end
   $var wire 5 ' rs2 [4:0] $end
   $var wire 5 ( rd [4:0] $end
   $var wire 32 j WriteBackData [31:0] $end
   $var wire 32 6 Reg1Data [31:0] $end
   $var wire 32 7 Reg2Data [31:0] $end
   $scope module pc_sl $end
    $var wire 1 O clk $end
    $var wire 1 g reset $end
    $var wire 32 h PcInput [31:0] $end
    $var wire 32 f PcOutput [31:0] $end
    $var wire 32 f PcReg [31:0] $end
    $var wire 1 n reset_done $end
   $upscope $end
   $scope module icache_sl $end
    $var wire 1 O clk $end
    $var wire 1 g reset $end
    $var wire 32 f Address [31:0] $end
    $var wire 32 $ Instruction [31:0] $end
    $var wire 32 i MemInstruction [31:0] $end
   $upscope $end
   $scope module imm_sl $end
    $var wire 32 $ Instruction [31:0] $end
    $var wire 32 % ImmData [31:0] $end
   $upscope $end
   $var wire 1 ) JumpLink $end
   $var wire 3 * BranchOperation [2:0] $end
   $var wire 4 + AluOperation [3:0] $end
   $var wire 3 , MemoryOperation [2:0] $end
   $var wire 1 - MemWriteEn $end
   $var wire 1 . MemReadEn $end
   $var wire 1 / RegWriteEn $end
   $var wire 1 0 AluSrc1Selector $end
   $var wire 1 1 AluSrc2Selector $end
   $var wire 2 2 Mem2Reg [1:0] $end
   $scope module constrol_sl $end
    $var wire 32 $ Instruction [31:0] $end
    $var wire 1 ) JumpLink $end
    $var wire 3 * BranchOperation [2:0] $end
    $var wire 4 + AluOperation [3:0] $end
    $var wire 1 0 AluSrc1 $end
    $var wire 1 1 AluSrc2 $end
    $var wire 3 , MemoryOperation [2:0] $end
    $var wire 1 - MemWriteEn $end
    $var wire 1 . MemReadEn $end
    $var wire 1 / RegWriteEn $end
    $var wire 2 2 Mem2Reg [1:0] $end
    $var wire 1 T CpuStart $end
   $upscope $end
   $scope module regf_sl $end
    $var wire 1 O clk $end
    $var wire 1 g reset $end
    $var wire 5 & ReadRegAddr1 [4:0] $end
    $var wire 5 ' ReadRegAddr2 [4:0] $end
    $var wire 5 ( WriteRegAddr [4:0] $end
    $var wire 32 j WriteData [31:0] $end
    $var wire 1 / RegWrite $end
    $var wire 32 6 ReadData1 [31:0] $end
    $var wire 32 7 ReadData2 [31:0] $end
    $var wire 32 o Registers[0] [31:0] $end
    $var wire 32 p Registers[1] [31:0] $end
    $var wire 32 q Registers[2] [31:0] $end
    $var wire 32 r Registers[3] [31:0] $end
    $var wire 32 s Registers[4] [31:0] $end
    $var wire 32 t Registers[5] [31:0] $end
    $var wire 32 u Registers[6] [31:0] $end
    $var wire 32 v Registers[7] [31:0] $end
    $var wire 32 w Registers[8] [31:0] $end
    $var wire 32 x Registers[9] [31:0] $end
    $var wire 32 y Registers[10] [31:0] $end
    $var wire 32 z Registers[11] [31:0] $end
    $var wire 32 { Registers[12] [31:0] $end
    $var wire 32 | Registers[13] [31:0] $end
    $var wire 32 } Registers[14] [31:0] $end
    $var wire 32 ~ Registers[15] [31:0] $end
    $var wire 32 !! Registers[16] [31:0] $end
    $var wire 32 "! Registers[17] [31:0] $end
    $var wire 32 #! Registers[18] [31:0] $end
    $var wire 32 $! Registers[19] [31:0] $end
    $var wire 32 %! Registers[20] [31:0] $end
    $var wire 32 &! Registers[21] [31:0] $end
    $var wire 32 '! Registers[22] [31:0] $end
    $var wire 32 (! Registers[23] [31:0] $end
    $var wire 32 )! Registers[24] [31:0] $end
    $var wire 32 *! Registers[25] [31:0] $end
    $var wire 32 +! Registers[26] [31:0] $end
    $var wire 32 ,! Registers[27] [31:0] $end
    $var wire 32 -! Registers[28] [31:0] $end
    $var wire 32 .! Registers[29] [31:0] $end
    $var wire 32 /! Registers[30] [31:0] $end
    $var wire 32 0! Registers[31] [31:0] $end
    $scope module unnamedblk1 $end
     $var wire 32 # i [31:0] $end
    $upscope $end
    $scope module unnamedblk2 $end
     $var wire 32 1! i [31:0] $end
    $upscope $end
   $upscope $end
   $var wire 32 k AluSrc1 [31:0] $end
   $var wire 32 l AluSrc2 [31:0] $end
   $var wire 32 8 AluResult [31:0] $end
   $scope module Src1ForAlu_sl $end
    $var wire 1 0 Select $end
    $var wire 32 6 Input0 [31:0] $end
    $var wire 32 f Input1 [31:0] $end
    $var wire 32 k Output [31:0] $end
   $upscope $end
   $scope module Src2ForAlu_sl $end
    $var wire 1 1 Select $end
    $var wire 32 7 Input0 [31:0] $end
    $var wire 32 % Input1 [31:0] $end
    $var wire 32 l Output [31:0] $end
   $upscope $end
   $scope module alu_sl $end
    $var wire 32 k InputA [31:0] $end
    $var wire 32 l InputB [31:0] $end
    $var wire 4 + AluOperation [3:0] $end
    $var wire 32 8 Result [31:0] $end
    $var wire 64 : Mul [63:0] $end
    $var wire 64 < SignedInputAExt [63:0] $end
    $var wire 64 > UnsignedInputBExt [63:0] $end
    $var wire 128 @ FullMul [127:0] $end
   $upscope $end
   $scope module Bru_sl $end
    $var wire 32 6 Source1 [31:0] $end
    $var wire 32 7 Source2 [31:0] $end
    $var wire 32 f Pc [31:0] $end
    $var wire 32 % Immediate [31:0] $end
    $var wire 3 * BRUOperation [2:0] $end
    $var wire 1 ) Jalr $end
    $var wire 1 g reset $end
    $var wire 32 h NewPc [31:0] $end
    $var wire 1 2! Res $end
   $upscope $end
   $var wire 32 8 MemAddress [31:0] $end
   $var wire 32 9 MemWriteData [31:0] $end
   $var wire 32 9 DataFromCache [31:0] $end
   $var wire 1 - MemEnWrite $end
   $scope module dcache_sl $end
    $var wire 1 O clk $end
    $var wire 1 g reset $end
    $var wire 32 8 Address [31:0] $end
    $var wire 32 7 WriteData [31:0] $end
    $var wire 3 , MemOperation [2:0] $end
    $var wire 1 . MemRead $end
    $var wire 1 - MemWrite $end
    $var wire 32 9 DataOut [31:0] $end
    $var wire 32 3 MemData [31:0] $end
    $var wire 32 8 MemAddress [31:0] $end
    $var wire 32 9 MemWriteData [31:0] $end
    $var wire 1 - MemWriteEnB $end
    $var wire 32 3 RawData [31:0] $end
    $var wire 32 :! Data1FF3 [31:0] $end
   $upscope $end
   $var wire 1 m WriteEnPortB $end
   $scope module WriteBack_sl $end
    $var wire 2 2 Select [1:0] $end
    $var wire 32 8 Input0 [31:0] $end
    $var wire 32 9 Input1 [31:0] $end
    $var wire 32 3! Input2 [31:0] $end
    $var wire 32 j Output [31:0] $end
   $upscope $end
   $scope module memory_sl $end
    $var wire 1 g reset $end
    $var wire 1 P clkA $end
    $var wire 1 P clkB $end
    $var wire 32 f AddressA [31:0] $end
    $var wire 32 4 AddressB [31:0] $end
    $var wire 32 5 WriteData [31:0] $end
    $var wire 1 m EnableWriteB $end
    $var wire 8 U Switch1 [7:0] $end
    $var wire 8 V Switch2 [7:0] $end
    $var wire 1 W Button1 $end
    $var wire 1 X Button2 $end
    $var wire 1 Y Button3 $end
    $var wire 1 Z Button4 $end
    $var wire 1 [ Button5 $end
    $var wire 12 _ VgaAddress [11:0] $end
    $var wire 32 J Seg1Out [31:0] $end
    $var wire 8 H Led1Out [7:0] $end
    $var wire 8 I Led2Out [7:0] $end
    $var wire 8 d CharOut [7:0] $end
    $var wire 8 e ColorOut [7:0] $end
    $var wire 32 i ReadDataA [31:0] $end
    $var wire 32 3 ReadDataB [31:0] $end
    $var wire 32 ;! ADDR_HIGH [31:0] $end
    $var wire 32 <! ADDR_LOW [31:0] $end
    $var wire 32 K ReDataA [31:0] $end
    $var wire 32 L ReDataB [31:0] $end
    $var wire 32 4! DataIo [31:0] $end
    $var wire 32 5! ExpData [31:0] $end
    $var wire 1 D IsMMIO $end
    $var wire 1 6! IsExcept $end
    $var wire 1 E EnWB $end
    $scope module mem_inst $end
     $var wire 1 P clka $end
     $var wire 1 P clkb $end
     $var wire 14 7! addra [13:0] $end
     $var wire 14 F addrb [13:0] $end
     $var wire 32 G write_datab [31:0] $end
     $var wire 1 E web $end
     $var wire 32 K dataa [31:0] $end
     $var wire 32 L datab [31:0] $end
     $var wire 32 M dataa_temp [31:0] $end
     $var wire 32 N datab_temp [31:0] $end
     $var wire 32 8! ShowData [31:0] $end
    $upscope $end
    $scope module exp_inst $end
     $var wire 32 f Address [31:0] $end
     $var wire 32 5! ExpData [31:0] $end
    $upscope $end
    $scope module mmio_inst $end
     $var wire 1 g reset $end
     $var wire 1 P clk $end
     $var wire 32 4 Address [31:0] $end
     $var wire 32 5 WriteData [31:0] $end
     $var wire 8 U Switch1 [7:0] $end
     $var wire 8 V Switch2 [7:0] $end
     $var wire 1 W Button1 $end
     $var wire 1 X Button2 $end
     $var wire 1 Y Button3 $end
     $var wire 1 Z Button4 $end
     $var wire 1 [ Button5 $end
     $var wire 32 J Seg1Out [31:0] $end
     $var wire 8 H Led1Out [7:0] $end
     $var wire 8 I Led2Out [7:0] $end
     $var wire 12 _ VgaAddress [11:0] $end
     $var wire 8 d CharOut [7:0] $end
     $var wire 8 e ColorOut [7:0] $end
     $var wire 32 4! DataIo [31:0] $end
     $var wire 8 H Led1 [7:0] $end
     $var wire 8 I Led2 [7:0] $end
     $var wire 32 J Seg1 [31:0] $end
     $scope module unnamedblk1 $end
      $var wire 32 9! i [31:0] $end
     $upscope $end
    $upscope $end
   $upscope $end
  $upscope $end
  $var wire 1 O clk $end
  $var wire 1 P memclk $end
  $var wire 1 Q reset $end
  $var wire 32 R UartData [31:0] $end
  $var wire 32 S UartAddress [31:0] $end
  $var wire 1 T UartOver $end
  $var wire 8 U Switch1 [7:0] $end
  $var wire 8 V Switch2 [7:0] $end
  $var wire 1 W Button1 $end
  $var wire 1 X Button2 $end
  $var wire 1 Y Button3 $end
  $var wire 1 Z Button4 $end
  $var wire 1 [ Button5 $end
  $var wire 8 \ Led1 [7:0] $end
  $var wire 8 ] Led2 [7:0] $end
  $var wire 32 ^ Seg1Out [31:0] $end
  $var wire 12 _ VgaAddress [11:0] $end
  $var wire 8 ` CharOut [7:0] $end
  $var wire 8 a ColorOut [7:0] $end
  $var wire 32 b Pc_test [31:0] $end
  $var wire 32 c Inst_test [31:0] $end
 $upscope $end
$enddefinitions $end


#1
b00000000000000000000000000100000 #
b00000000000000000000000000000000 $
b00000000000000000000000000000000 %
b00000 &
b00000 '
b00000 (
0)
b000 *
b0000 +
b000 ,
0-
0.
0/
00
11
b00 2
b00000000000000000000000000000000 3
b00000000000000000000000000000000 4
b00000000000000011000010100000011 5
b00000000000000000000000000000000 6
b00000000000000000000000000000000 7
b00000000000000000000000000000000 8
b00000000000000000000000000000000 9
b0000000000000000000000000000000000000000000000000000000000000000 :
b0000000000000000000000000000000000000000000000000000000000000000 <
b0000000000000000000000000000000000000000000000000000000000000000 >
b00000000000000000000000000000000000000000000000000000000000000000000000000000000000000000000000000000000000000000000000000000000 @
0D
1E
b00000000000000 F
b00000000000000011000010100000011 G
b00000000 H
b00000000 I
b00000000000000000000000000000000 J
b00000000000000000000000000000000 K
b00000000000000000000000000000000 L
b00000000000000000000000000000000 M
b00000000000000000000000000000000 N
1O
0P
1Q
b00000000000000011000010100000011 R
b00000000000000000000000000000000 S
0T
b00000000 U
b00000000 V
0W
0X
0Y
0Z
0[
b00000000 \
b00000000 ]
b00000000000000000000000000000000 ^
b000000000000 _
b00000000 `
b00000000 a
b00000000000000000000000000000000 b
b00000000000000000000000000000000 c
b00000000 d
b00000000 e
b00000000000000000000000000000000 f
1g
b00000000000000000000000000000000 h
b00000000000000000000000000000000 i
b00000000000000000000000000000000 j
b00000000000000000000000000000000 k
b00000000000000000000000000000000 l
1m
0n
b00000000000000000000000000000000 o
b00000000000000000000000000000000 p
b00000000000000000000000000000000 q
b11111111111111111111111100000000 r
b00000000000000000000000000000000 s
b00000000000000000000000000000000 t
b00000000000000000000000000000000 u
b00000000000000000000000000000000 v
b00000000000000000000000000000000 w
b00000000000000000000000000000000 x
b00000000000000000000000000000000 y
b00000000000000000000000000000000 z
b00000000000000000000000000000000 {
b00000000000000000000000000000000 |
b00000000000000000000000000000000 }
b00000000000000000000000000000000 ~
b00000000000000000000000000000000 !!
b00000000000000000000000000000000 "!
b00000000000000000000000000000000 #!
b00000000000000000000000000000000 $!
b00000000000000000000000000000000 %!
b00000000000000000000000000000000 &!
b00000000000000000000000000000000 '!
b00000000000000000000000000000000 (!
b00000000000000000000000000000000 )!
b00000000000000000000000000000000 *!
b00000000000000000000000000000000 +!
b00000000000000000000000000000000 ,!
b00000000000000000000000000000000 -!
b00000000000000000000000000000000 .!
b00000000000000000000000000000000 /!
b00000000000000000000000000000000 0!
b00000000000000000000000000000000 1!
02!
b00000000000000000000000000000100 3!
b00000000000000000000000000000000 4!
b00000000000000000000000000000000 5!
06!
b00000000000000 7!
b00000000000000000000000000000000 8!
b00000000000000000000110000000000 9!
b00000000000000000000000000000000 :!
b00000000000000000000000000001111 ;!
b00000000000000000000000000000010 <!
#3
b00000000000000011000010100000011 N
#5
b00000000000000011000010100000011 3
b00000000000000000000000000000011 9
b00000000000000011000010100000011 L
b00000000000000011000010100000011 M
#7
b00000000000000011000010100000011 K
b00000000000000011000010100000011 i
#21
0O
b00000000000000000111111111111100 q
b00000000000000000000000000100000 1!
#42
1O
#62
0O
#83
b00000000000000000000000000000100 4
b00000000101000011000011000100011 5
b00000000000001 F
b00000000101000011000011000100011 G
b00000000101000011000011000100011 N
1O
b00000000101000011000011000100011 R
b00000000000000000000000000000100 S
b00000000101000011000011000100011 8!
#85
b00000000101000011000011000100011 3
b00000000000000000000000000100011 9
b00000000101000011000011000100011 L
#103
0O
#124
1O
#144
0O
#165
b00000000000000000000000000001000 4
b00000000010000011000010100000011 5
b00000000000010 F
b00000000010000011000010100000011 G
b00000000010000011000010100000011 N
1O
b00000000010000011000010100000011 R
b00000000000000000000000000001000 S
#167
b00000000010000011000010100000011 3
b00000000000000000000000000000011 9
b00000000010000011000010100000011 L
#185
0O
#206
1O
#226
0O
#247
b00000000000000000000000000001100 4
b00000000101000011000100000100011 5
b00000000000011 F
b00000000101000011000100000100011 G
b00000000101000011000100000100011 N
1O
b00000000101000011000100000100011 R
b00000000000000000000000000001100 S
#249
b00000000101000011000100000100011 3
b00000000000000000000000000100011 9
b00000000101000011000100000100011 L
#267
0O
#288
1O
#308
0O
#329
b00000000000000000000000000010000 4
b11111111000111111111000001101111 5
b00000000000100 F
b11111111000111111111000001101111 G
b11111111000111111111000001101111 N
1O
b11111111000111111111000001101111 R
b00000000000000000000000000010000 S
#331
b11111111000111111111000001101111 3
b00000000000000000000000001101111 9
b11111111000111111111000001101111 L
#349
0O
#370
1O
#390
0O
#411
b00000000000000011000010100000011 $
b00011 &
b01010 (
b0011 +
1.
1/
b01 2
b00000000000000000000000000000000 3
b11111111111111111111111100000000 4
b00000000000000000000000000000000 5
b11111111111111111111111100000000 6
b11111111111111111111111100000000 8
b00000000000000000000000000000000 9
1D
0E
b11111111000000 F
b00000000000000000000000000000000 G
b00000000000000000000000000000000 N
1O
1T
b00000000000000011000010100000011 c
0g
b00000000000000000000000000000100 h
b11111111111111111111111100000000 k
0m
1n
#413
b00000000000000000000000000000000 L
#431
0O
#452
1O
b00000000000000000000000000000100 b
b00000000000000000000000000000100 f
b00000000000000000000000000001000 h
b00000000000000000000000000001000 3!
b00000000000001 7!
#454
b00000000101000011000011000100011 M
#456
b00000000101000011000011000100011 $
b00000000000000000000000000001100 %
b01010 '
b01100 (
b101 ,
1-
0.
0/
b00 2
b11111111111111111111111100001100 4
b11111111111111111111111100001100 8
b11111111000011 F
b00000000101000011000011000100011 K
b00000000101000011000011000100011 c
b00000000101000011000011000100011 i
b11111111111111111111111100001100 j
b00000000000000000000000000001100 l
1m
#472
0O
#493
1O
b00000000000000000000000000001000 b
b00000000000000000000000000001000 f
b00000000000000000000000000001100 h
b00000000000000000000000000001100 3!
b00000000000010 7!
#495
b00000000010000011000010100000011 M
#497
b00000000010000011000010100000011 $
b00000000000000000000000000000100 %
b00100 '
b01010 (
b000 ,
0-
1.
1/
b01 2
b11111111111111111111111100000100 4
b11111111111111111111111100000100 8
b11111111000001 F
b00000000010000011000010100000011 K
b00000000010000011000010100000011 c
b00000000010000011000010100000011 i
b00000000000000000000000000000000 j
b00000000000000000000000000000100 l
0m
#513
0O
#534
1O
b00000000000000000000000000001100 b
b00000000000000000000000000001100 f
b00000000000000000000000000010000 h
b00000000000000000000000000010000 3!
b00000000000011 7!
#536
b00000000101000011000100000100011 M
#538
b00000000101000011000100000100011 $
b00000000000000000000000000010000 %
b01010 '
b10000 (
b101 ,
1-
0.
0/
b00 2
b11111111111111111111111100010000 4
b11111111111111111111111100010000 8
b11111111000100 F
b00000000101000011000100000100011 K
b00000000101000011000100000100011 c
b00000000101000011000100000100011 i
b11111111111111111111111100010000 j
b00000000000000000000000000010000 l
1m
#554
0O
#575
1O
b00000000000000000000000000010000 b
b00000000000000000000000000010000 f
b00000000000000000000000000010100 h
b00000000000000000000000000010100 3!
b00000000000100 7!
#577
b11111111000111111111000001101111 M
#579
b11111111000111111111000001101111 $
b11111111111111111111111111110000 %
b11111 &
b10001 '
b00000 (
b111 *
b000 ,
0-
1/
10
b10 2
b00000000000000000000000000000000 4
b00000000000000000000000000000000 6
b00000000000000000000000000000000 8
0D
b00000000000000 F
b11111111000111111111000001101111 K
b11111111000111111111000001101111 c
b00000000000000000000000000000000 h
b11111111000111111111000001101111 i
b00000000000000000000000000010100 j
b00000000000000000000000000010000 k
b11111111111111111111111111110000 l
0m
12!
#581
b00000000000000011000010100000011 N
#583
b00000000000000011000010100000011 3
b00000000000000000000000000000011 5
b00000000000000000000000000000011 9
b00000000000000000000000000000011 G
b00000000000000011000010100000011 L
#595
0O
#616
b00000000000000000000000000000000 3
b11111111111111111111111111110000 4
b00000000000000000000000000000000 5
b11111111111111111111111111110000 8
b00000000000000000000000000000000 9
1D
b11111111111100 F
b00000000000000000000000000000000 G
1O
b00000000000000000000000000000000 b
b00000000000000000000000000000000 f
b11111111111111111111111111110000 h
b00000000000000000000000000000100 j
b00000000000000000000000000000000 k
b00000000000000000000000000000100 3!
b00000000000000 7!
#618
b00000000000000011000010100000011 M
b00000000000000000000000000000000 N
#620
b00000000000000011000010100000011 $
b00000000000000000000000000000000 %
b00011 &
b00000 '
b01010 (
b000 *
1.
00
b01 2
b11111111111111111111111100000000 4
b11111111111111111111111100000000 6
b11111111111111111111111100000000 8
b11111111000000 F
b00000000000000011000010100000011 K
b00000000000000000000000000000000 L
b00000000000000011000010100000011 c
b00000000000000000000000000000100 h
b00000000000000011000010100000011 i
b00000000000000000000000000000000 j
b11111111111111111111111100000000 k
b00000000000000000000000000000000 l
02!
#636
0O
#657
1O
b00000000000000000000000000000100 b
b00000000000000000000000000000100 f
b00000000000000000000000000001000 h
b00000000000000000000000000001000 3!
b00000000000001 7!
#659
b00000000101000011000011000100011 M
#661
b00000000101000011000011000100011 $
b00000000000000000000000000001100 %
b01010 '
b01100 (
b101 ,
1-
0.
0/
b00 2
b11111111111111111111111100001100 4
b11111111111111111111111100001100 8
b11111111000011 F
b00000000101000011000011000100011 K
b00000000101000011000011000100011 c
b00000000101000011000011000100011 i
b11111111111111111111111100001100 j
b00000000000000000000000000001100 l
1m
#677
0O
#698
1O
b00000000000000000000000000001000 b
b00000000000000000000000000001000 f
b00000000000000000000000000001100 h
b00000000000000000000000000001100 3!
b00000000000010 7!
#700
b00000000010000011000010100000011 M
#702
b00000000010000011000010100000011 $
b00000000000000000000000000000100 %
b00100 '
b01010 (
b000 ,
0-
1.
1/
b01 2
b11111111111111111111111100000100 4
b11111111111111111111111100000100 8
b11111111000001 F
b00000000010000011000010100000011 K
b00000000010000011000010100000011 c
b00000000010000011000010100000011 i
b00000000000000000000000000000000 j
b00000000000000000000000000000100 l
0m
#718
0O
#739
1O
b00000000000000000000000000001100 b
b00000000000000000000000000001100 f
b00000000000000000000000000010000 h
b00000000000000000000000000010000 3!
b00000000000011 7!
#741
b00000000101000011000100000100011 M
#743
b00000000101000011000100000100011 $
b00000000000000000000000000010000 %
b01010 '
b10000 (
b101 ,
1-
0.
0/
b00 2
b11111111111111111111111100010000 4
b11111111111111111111111100010000 8
b11111111000100 F
b00000000101000011000100000100011 K
b00000000101000011000100000100011 c
b00000000101000011000100000100011 i
b11111111111111111111111100010000 j
b00000000000000000000000000010000 l
1m
#759
0O
#780
1O
b00000000000000000000000000010000 b
b00000000000000000000000000010000 f
b00000000000000000000000000010100 h
b00000000000000000000000000010100 3!
b00000000000100 7!
#782
b11111111000111111111000001101111 M
#784
b11111111000111111111000001101111 $
b11111111111111111111111111110000 %
b11111 &
b10001 '
b00000 (
b111 *
b000 ,
0-
1/
10
b10 2
b00000000000000000000000000000000 4
b00000000000000000000000000000000 6
b00000000000000000000000000000000 8
0D
b00000000000000 F
b11111111000111111111000001101111 K
b11111111000111111111000001101111 c
b00000000000000000000000000000000 h
b11111111000111111111000001101111 i
b00000000000000000000000000010100 j
b00000000000000000000000000010000 k
b11111111111111111111111111110000 l
0m
12!
#786
b00000000000000011000010100000011 N
#788
b00000000000000011000010100000011 3
b00000000000000000000000000000011 5
b00000000000000000000000000000011 9
b00000000000000000000000000000011 G
b00000000000000011000010100000011 L
#800
0O
#821
b00000000000000000000000000000000 3
b11111111111111111111111111110000 4
b00000000000000000000000000000000 5
b11111111111111111111111111110000 8
b00000000000000000000000000000000 9
1D
b11111111111100 F
b00000000000000000000000000000000 G
1O
b00000000000000000000000000000000 b
b00000000000000000000000000000000 f
b11111111111111111111111111110000 h
b00000000000000000000000000000100 j
b00000000000000000000000000000000 k
b00000000000000000000000000000100 3!
b00000000000000 7!
#823
b00000000000000011000010100000011 M
b00000000000000000000000000000000 N
#825
b00000000000000011000010100000011 $
b00000000000000000000000000000000 %
b00011 &
b00000 '
b01010 (
b000 *
1.
00
b01 2
b11111111111111111111111100000000 4
b11111111111111111111111100000000 6
b11111111111111111111111100000000 8
b11111111000000 F
b00000000000000011000010100000011 K
b00000000000000000000000000000000 L
b00000000000000011000010100000011 c
b00000000000000000000000000000100 h
b00000000000000011000010100000011 i
b00000000000000000000000000000000 j
b11111111111111111111111100000000 k
b00000000000000000000000000000000 l
02!
#841
0O
#862
1O
b00000000000000000000000000000100 b
b00000000000000000000000000000100 f
b00000000000000000000000000001000 h
b00000000000000000000000000001000 3!
b00000000000001 7!
#864
b00000000101000011000011000100011 M
#866
b00000000101000011000011000100011 $
b00000000000000000000000000001100 %
b01010 '
b01100 (
b101 ,
1-
0.
0/
b00 2
b11111111111111111111111100001100 4
b11111111111111111111111100001100 8
b11111111000011 F
b00000000101000011000011000100011 K
b00000000101000011000011000100011 c
b00000000101000011000011000100011 i
b11111111111111111111111100001100 j
b00000000000000000000000000001100 l
1m
#882
0O
#903
1O
b00000000000000000000000000001000 b
b00000000000000000000000000001000 f
b00000000000000000000000000001100 h
b00000000000000000000000000001100 3!
b00000000000010 7!
#905
b00000000010000011000010100000011 M
#907
b00000000010000011000010100000011 $
b00000000000000000000000000000100 %
b00100 '
b01010 (
b000 ,
0-
1.
1/
b01 2
b11111111111111111111111100000100 4
b11111111111111111111111100000100 8
b11111111000001 F
b00000000010000011000010100000011 K
b00000000010000011000010100000011 c
b00000000010000011000010100000011 i
b00000000000000000000000000000000 j
b00000000000000000000000000000100 l
0m
#923
0O
#944
1O
b00000000000000000000000000001100 b
b00000000000000000000000000001100 f
b00000000000000000000000000010000 h
b00000000000000000000000000010000 3!
b00000000000011 7!
#946
b00000000101000011000100000100011 M
#948
b00000000101000011000100000100011 $
b00000000000000000000000000010000 %
b01010 '
b10000 (
b101 ,
1-
0.
0/
b00 2
b11111111111111111111111100010000 4
b11111111111111111111111100010000 8
b11111111000100 F
b00000000101000011000100000100011 K
b00000000101000011000100000100011 c
b00000000101000011000100000100011 i
b11111111111111111111111100010000 j
b00000000000000000000000000010000 l
1m
#964
0O
#985
1O
b00000000000000000000000000010000 b
b00000000000000000000000000010000 f
b00000000000000000000000000010100 h
b00000000000000000000000000010100 3!
b00000000000100 7!
#987
b11111111000111111111000001101111 M
#989
b11111111000111111111000001101111 $
b11111111111111111111111111110000 %
b11111 &
b10001 '
b00000 (
b111 *
b000 ,
0-
1/
10
b10 2
b00000000000000000000000000000000 4
b00000000000000000000000000000000 6
b00000000000000000000000000000000 8
0D
b00000000000000 F
b11111111000111111111000001101111 K
b11111111000111111111000001101111 c
b00000000000000000000000000000000 h
b11111111000111111111000001101111 i
b00000000000000000000000000010100 j
b00000000000000000000000000010000 k
b11111111111111111111111111110000 l
0m
12!
#991
b00000000000000011000010100000011 N
#993
b00000000000000011000010100000011 3
b00000000000000000000000000000011 5
b00000000000000000000000000000011 9
b00000000000000000000000000000011 G
b00000000000000011000010100000011 L
#1005
0O
#1026
b00000000000000000000000000000000 3
b11111111111111111111111111110000 4
b00000000000000000000000000000000 5
b11111111111111111111111111110000 8
b00000000000000000000000000000000 9
1D
b11111111111100 F
b00000000000000000000000000000000 G
1O
b00000000000000000000000000000000 b
b00000000000000000000000000000000 f
b11111111111111111111111111110000 h
b00000000000000000000000000000100 j
b00000000000000000000000000000000 k
b00000000000000000000000000000100 3!
b00000000000000 7!
#1028
b00000000000000011000010100000011 M
b00000000000000000000000000000000 N
#1030
b00000000000000011000010100000011 $
b00000000000000000000000000000000 %
b00011 &
b00000 '
b01010 (
b000 *
1.
00
b01 2
b11111111111111111111111100000000 4
b11111111111111111111111100000000 6
b11111111111111111111111100000000 8
b11111111000000 F
b00000000000000011000010100000011 K
b00000000000000000000000000000000 L
b00000000000000011000010100000011 c
b00000000000000000000000000000100 h
b00000000000000011000010100000011 i
b00000000000000000000000000000000 j
b11111111111111111111111100000000 k
b00000000000000000000000000000000 l
02!
#1046
0O
#1067
1O
b00000000000000000000000000000100 b
b00000000000000000000000000000100 f
b00000000000000000000000000001000 h
b00000000000000000000000000001000 3!
b00000000000001 7!
#1069
b00000000101000011000011000100011 M
#1071
b00000000101000011000011000100011 $
b00000000000000000000000000001100 %
b01010 '
b01100 (
b101 ,
1-
0.
0/
b00 2
b11111111111111111111111100001100 4
b11111111111111111111111100001100 8
b11111111000011 F
b00000000101000011000011000100011 K
b00000000101000011000011000100011 c
b00000000101000011000011000100011 i
b11111111111111111111111100001100 j
b00000000000000000000000000001100 l
1m
#1087
0O
#1108
1O
b00000000000000000000000000001000 b
b00000000000000000000000000001000 f
b00000000000000000000000000001100 h
b00000000000000000000000000001100 3!
b00000000000010 7!
#1110
b00000000010000011000010100000011 M
#1112
b00000000010000011000010100000011 $
b00000000000000000000000000000100 %
b00100 '
b01010 (
b000 ,
0-
1.
1/
b01 2
b11111111111111111111111100000100 4
b11111111111111111111111100000100 8
b11111111000001 F
b00000000010000011000010100000011 K
b00000000010000011000010100000011 c
b00000000010000011000010100000011 i
b00000000000000000000000000000000 j
b00000000000000000000000000000100 l
0m
#1128
0O
#1149
1O
b00000000000000000000000000001100 b
b00000000000000000000000000001100 f
b00000000000000000000000000010000 h
b00000000000000000000000000010000 3!
b00000000000011 7!
#1151
b00000000101000011000100000100011 M
#1153
b00000000101000011000100000100011 $
b00000000000000000000000000010000 %
b01010 '
b10000 (
b101 ,
1-
0.
0/
b00 2
b11111111111111111111111100010000 4
b11111111111111111111111100010000 8
b11111111000100 F
b00000000101000011000100000100011 K
b00000000101000011000100000100011 c
b00000000101000011000100000100011 i
b11111111111111111111111100010000 j
b00000000000000000000000000010000 l
1m
#1169
0O
#1190
1O
b00000000000000000000000000010000 b
b00000000000000000000000000010000 f
b00000000000000000000000000010100 h
b00000000000000000000000000010100 3!
b00000000000100 7!
#1192
b11111111000111111111000001101111 M
#1194
b11111111000111111111000001101111 $
b11111111111111111111111111110000 %
b11111 &
b10001 '
b00000 (
b111 *
b000 ,
0-
1/
10
b10 2
b00000000000000000000000000000000 4
b00000000000000000000000000000000 6
b00000000000000000000000000000000 8
0D
b00000000000000 F
b11111111000111111111000001101111 K
b11111111000111111111000001101111 c
b00000000000000000000000000000000 h
b11111111000111111111000001101111 i
b00000000000000000000000000010100 j
b00000000000000000000000000010000 k
b11111111111111111111111111110000 l
0m
12!
#1196
b00000000000000011000010100000011 N
#1198
b00000000000000011000010100000011 3
b00000000000000000000000000000011 5
b00000000000000000000000000000011 9
b00000000000000000000000000000011 G
b00000000000000011000010100000011 L
#1210
0O
